comparador.vcd
$date
  Mon Mar 22 15:54:54 2021
$end
$version
  GHDL v0
$end
$timescale
  1 fs
$end
$var reg 2 ! a[1:0] $end
$var reg 2 " b[1:0] $end
$var reg 1 # a_less_b $end
$scope module uut $end
$var reg 2 $ a[1:0] $end
$var reg 2 % b[1:0] $end
$var reg 1 & a_less_b $end
$var reg 1 ' tmp3 $end
$var reg 1 ( tmp4 $end
$var reg 1 ) tmp5 $end
$upscope $end
$enddefinitions $end
#0
b00 !
b01 "
1#
b00 $
b01 %
1&
1'
0(
0)
#20000000
b01 !
b10 "
b01 $
b10 %
0'
1(
#40000000
b10 !
b11 "
b10 $
b11 %
0(
1)
#60000000
b11 !
b00 "
0#
b11 $
b00 %
0&
0)
#80000000
b00 !
b01 "
1#
b00 $
b01 %
1&
1'
#100000000
b01 !
b10 "
b01 $
b10 %
0'
1(
#120000000
b10 !
b11 "
b10 $
b11 %
0(
1)
#140000000
b11 !
b00 "
0#
b11 $
b00 %
0&
0)
